Project 1: Wrangling, Exploration, Visualization
…
## # A tibble: 5 x 4
## # Groups:   binary [2]
##   binary clean_test mean_rate mean_ratio
##   <chr>  <ord>          <dbl>      <dbl>
## 1 FAIL   dubious         6.42      8.72 
## 2 PASS   ok              6.48      1.50 
## 3 FAIL   notalk          6.60      3.10 
## 4 FAIL   men             6.69      0.579
## 5 FAIL   nowomen         6.93      2.23

joined %>% filter(binary == "FAIL") %>% group_by(rating) %>% 
    summarize(n = n()) %>% arrange(-n)

## # A tibble: 53 x 2
##    rating     n
##     <dbl> <int>
##  1    6.8    21
##  2    6.4    17
##  3    7.1    17
##  4    7.3    15
##  5    6.5    14
##  6    6.3    13
##  7    7.6    13
##  8    5.8    12
##  9    6.6    12
## 10    7.2    12
## #  with 43 more rows

joined %>% filter(binary == "PASS") %>% group_by(rating) %>% 
    summarize(n = n()) %>% arrange(-n)

## # A tibble: 50 x 2
##    rating     n
##     <dbl> <int>
##  1    6.1    16
##  2    7.3    13
##  3    5.7    12
##  4    6.7    12
##  5    6.9    12
##  6    7      12
##  7    7.4    12
##  8    6.4    11
##  9    7.7    11
## 10    6.3    10
## #  with 40 more rows
…
